ACS Microdata and International Census Data
…
]

---

```r
wy_pums
```

```
## # A tibble: 5,967 x 8
##    SERIALNO      SPORDER  WGTP PWGTP  AGEP ST    SCHL  SEX  
##    <chr>           <dbl> <dbl> <dbl> <dbl> <chr> <chr> <chr>
##  1 2019GQ0000335       1     0   206    17 56    16    2    
##  2 2019GQ0000958       1     0    50    37 56    18    1    
##  3 2019GQ0009156       1     0    33    75 56    19    2    
##  4 2019GQ0012426       1     0    23    21 56    19    2    
##  5 2019GQ0015243       1     0   209    94 56    16    1    
##  6 2019GQ0018773       1     0   273    26 56    16    1    
##  7 2019GQ0019978       1     0     6    16 56    12    1    
##  8 2019GQ0022931       1     0    67    18 56    18    2    
##  9 2019GQ0032421       1     0   113    94 56    21    2    
## 10 2019GQ0033045       1     0    10    44 56    13    1    
## # … with 5,957 more rows
```
…
]

---

```r
wy_pums_recoded
```

```
## # A tibble: 5,967 x 11
##    SERIALNO  SPORDER  WGTP PWGTP  AGEP ST    SCHL  SEX   ST_label SCHL_label    
##    <chr>       <dbl> <dbl> <dbl> <dbl> <chr> <chr> <chr> <ord>    <ord>         
##  1 2019GQ00…       1     0    14    16 56    13    1     Wyoming… Grade 10      
##  2 2019GQ00…       1     0    58    36 56    15    1     Wyoming… 12th grade - …
##  3 2019GQ00…       1     0    72    82 56    16    2     Wyoming… Regular high …
##  4 2019GQ00…       1     0    68    18 56    16    2     Wyoming… Regular high …
##  5 2019GQ00…       1     0    68    35 56    16    1     Wyoming… Regular high …
##  6 2019GQ00…       1     0    11    54 56    16    2     Wyoming… Regular high …
##  7 2019GQ00…       1     0    49    26 56    16    1     Wyoming… Regular high …
##  8 2019GQ00…       1     0    61    18 56    18    1     Wyoming… Some college,…
##  9 2019GQ00…       1     0   140    35 56    19    1     Wyoming… 1 or more yea…
## 10 2019GQ00…       1     0    75    18 56    20    1     Wyoming… Associate's d…
## # … with 5,957 more rows, and 1 more variable: SEX_label <ord>
```
…
]

---

```r
wy_pums_filtered
```

```
## # A tibble: 7,658 x 11
##    SERIALNO  SPORDER  WGTP PWGTP  AGEP ST    SCHL  SEX   ST_label SCHL_label    
##    <chr>       <dbl> <dbl> <dbl> <dbl> <chr> <chr> <chr> <ord>    <ord>         
##  1 20150000…       1    27    28    74 56    16    2     Wyoming… Regular high …
##  2 20150000…       1    13    13    51 56    20    2     Wyoming… Associate's d…
##  3 20150000…       1    18    19    44 56    20    2     Wyoming… Associate's d…
##  4 20150000…       1    16    16    57 56    16    2     Wyoming… Regular high …
##  5 20150000…       1    14    14    93 56    18    2     Wyoming… Some college,…
##  6 20150000…       2    11    12    66 56    18    2     Wyoming… Some college,…
##  7 20150000…       2    17    13    19 56    19    2     Wyoming… 1 or more yea…
##  8 20150000…       2    25    24    51 56    18    2     Wyoming… Some college,…
##  9 20150000…       2    26    22    57 56    19    2     Wyoming… 1 or more yea…
## 10 20150000…       2    14    13    66 56    16    2     Wyoming… Regular high …
## # … with 7,648 more rows, and 1 more variable: SEX_label <ord>
```
…
---

```r
wy_age_by_puma
```

```
## # A tibble: 29,238 x 7
##    SERIALNO      SPORDER  WGTP PWGTP  AGEP PUMA  ST   
##    <chr>           <dbl> <dbl> <dbl> <dbl> <chr> <chr>
##  1 2015000001990       1    27    26    67 00300 56   
##  2 2015000006752       1     5     5    86 00100 56   
##  3 2015000006752       2     5     6    83 00100 56   
##  4 2015000006847       1    29    29    61 00300 56   
##  5 2015000007045       1    23    23    62 00300 56   
##  6 2015000007045       2    23    19    66 00300 56   
##  7 2015000007045       3    23    34    35 00300 56   
##  8 2015000007382       1    17    17    33 00500 56   
##  9 2015000010448       1     9     9    69 00100 56   
## 10 2015000010448       2     9     9    77 00100 56   
## # … with 29,228 more rows
```
…
---

```r
wy_puma_subset
```

```
## # A tibble: 7,176 x 7
##    SERIALNO      SPORDER  WGTP PWGTP  AGEP PUMA  ST   
##    <chr>           <dbl> <dbl> <dbl> <dbl> <chr> <chr>
##  1 2015000010667       1    11    12    38 00500 56   
##  2 2015000010667       2    11    14    36 00500 56   
##  3 2015000010667       3    11    14     5 00500 56   
##  4 2015000018572       1     8     8    80 00500 56   
##  5 2015000040346       1    24    23    54 00500 56   
##  6 2015000040346       2    24    31    55 00500 56   
##  7 2015000042859       1     7     8    60 00500 56   
##  8 2015000042859       2     7     4    53 00500 56   
##  9 2015000047414       1    17    16    60 00500 56   
## 10 2015000047414       2    17    35    72 00500 56   
## # … with 7,166 more rows
```
…
ms_age_sex <- ms_pums %>%
  count(SEX_label, AGEP, wt = PWGTP) 
```

---

```r
ms_age_sex
```

```
## # A tibble: 186 x 3
##    SEX_label  AGEP     n
##    <ord>     <dbl> <dbl>
##  1 Male          0 18232
##  2 Male          1 19104
##  3 Male          2 18399
##  4 Male          3 18810
##  5 Male          4 20597
##  6 Male          5 18066
##  7 Male          6 20756
##  8 Male          7 20989
##  9 Male          8 20548
## 10 Male          9 21852
## # … with 176 more rows
```
…
---

```r
ms_pums_summary
```

```
## # A tibble: 42 x 6
## # Groups:   PUMA [21]
##    PUMA  SEX_label total_pop mean_age ba_above ba_above_pct
##    <chr> <ord>         <dbl>    <dbl>    <dbl>        <dbl>
##  1 00100 Male          86297     35.6    12061         22.1
##  2 00100 Female        92713     37.7    17297         27.8
##  3 00200 Male          71887     38.4     5933         12.4
##  4 00200 Female        75595     41.1     8315         15.8
##  5 00300 Male          56603     36.4     4498         12.4
##  6 00300 Female        60428     38.9     6641         16.3
##  7 00400 Male          69837     37.0    10173         23.0
##  8 00400 Female        74481     39.1    11907         24.4
##  9 00500 Male          69954     36.6     8238         18.2
## 10 00500 Female        75230     38.7    11162         22.0
## # … with 32 more rows
```
…
]

---

```r
ms_pums_replicate
```

```
## # A tibble: 146,023 x 92
##    SERIALNO  SPORDER  AGEP PUMA  ST    SCHL  SEX   ST_label SCHL_label SEX_label
##    <chr>       <dbl> <dbl> <chr> <chr> <chr> <chr> <ord>    <ord>      <ord>    
##  1 20150000…       1    53 01100 28    16    2     Mississ… Regular h… Female   
##  2 20150000…       2    33 01100 28    13    1     Mississ… Grade 10   Male     
##  3 20150000…       3    32 01100 28    17    1     Mississ… GED or al… Male     
##  4 20150000…       1    42 00500 28    21    1     Mississ… Bachelor'… Male     
##  5 20150000…       2    37 00500 28    21    2     Mississ… Bachelor'… Female   
##  6 20150000…       3     8 00500 28    05    1     Mississ… Grade 2    Male     
##  7 20150000…       4     7 00500 28    04    1     Mississ… Grade 1    Male     
##  8 20150000…       1    33 01300 28    18    2     Mississ… Some coll… Female   
##  9 20150000…       2    15 01300 28    11    1     Mississ… Grade 8    Male     
## 10 20150000…       3     5 01300 28    02    2     Mississ… Nursery s… Female   
## # … with 146,013 more rows, and 82 more variables: WGTP <dbl>, PWGTP <dbl>,
## #   PWGTP1 <dbl>, PWGTP2 <dbl>, PWGTP3 <dbl>, PWGTP4 <dbl>, PWGTP5 <dbl>,
## #   PWGTP6 <dbl>, PWGTP7 <dbl>, PWGTP8 <dbl>, PWGTP9 <dbl>, PWGTP10 <dbl>,
## #   PWGTP11 <dbl>, PWGTP12 <dbl>, PWGTP13 <dbl>, PWGTP14 <dbl>, PWGTP15 <dbl>,
## #   PWGTP16 <dbl>, PWGTP17 <dbl>, PWGTP18 <dbl>, PWGTP19 <dbl>, PWGTP20 <dbl>,
## #   PWGTP21 <dbl>, PWGTP22 <dbl>, PWGTP23 <dbl>, PWGTP24 <dbl>, PWGTP25 <dbl>,
## #   PWGTP26 <dbl>, PWGTP27 <dbl>, PWGTP28 <dbl>, PWGTP29 <dbl>, PWGTP30 <dbl>,
## #   PWGTP31 <dbl>, PWGTP32 <dbl>, PWGTP33 <dbl>, PWGTP34 <dbl>, PWGTP35 <dbl>,
## #   PWGTP36 <dbl>, PWGTP37 <dbl>, PWGTP38 <dbl>, PWGTP39 <dbl>, PWGTP40 <dbl>,
…
]

---

## Calculating estimates and errors with __srvyr__

* srvyr's `survey_*()` family of functions automatically calculates standard errors around tabulated estimates for you 

```r
ms_pums_svy %>% 
  survey_count(PUMA, SEX_label)
```

```
## # A tibble: 42 x 4
##    PUMA  SEX_label     n  n_se
##    <chr> <ord>     <dbl> <dbl>
##  1 00100 Male      86297  272.
##  2 00100 Female    92713  119.
##  3 00200 Male      71887  402.
##  4 00200 Female    75595  333.
##  5 00300 Male      56603  715.
##  6 00300 Female    60428  293.
##  7 00400 Male      69837  652.
##  8 00400 Female    74481  458.
##  9 00500 Male      69954  233.
## 10 00500 Female    75230  258.
## # … with 32 more rows
```
…
