Accessing and Analyzing US Census Data in R
…
---

* Decennial Census data are returned with four columns: `GEOID`, `NAME`, `variable`, and `value`

```r
pop10
```

```
## # A tibble: 52 x 4
##    GEOID NAME        variable    value
##    <chr> <chr>       <chr>       <dbl>
##  1 01    Alabama     P001001   4779736
##  2 02    Alaska      P001001    710231
##  3 04    Arizona     P001001   6392017
##  4 05    Arkansas    P001001   2915918
##  5 06    California  P001001  37253956
##  6 22    Louisiana   P001001   4533372
##  7 21    Kentucky    P001001   4339367
##  8 08    Colorado    P001001   5029196
##  9 09    Connecticut P001001   3574097
## 10 10    Delaware    P001001    897934
## # … with 42 more rows
```
…
---

* The output of `get_acs()` includes the `GEOID`, `NAME`, and `variable` columns along with the ACS `estimate` and `moe`, which is the margin of error around that estimate at a 90 percent confidence level

```r
income_15to19
```

```
## # A tibble: 52 x 5
##    GEOID NAME                 variable   estimate   moe
##    <chr> <chr>                <chr>         <dbl> <dbl>
##  1 01    Alabama              B19013_001    50536   304
##  2 02    Alaska               B19013_001    77640  1015
##  3 04    Arizona              B19013_001    58945   266
##  4 05    Arkansas             B19013_001    47597   328
##  5 06    California           B19013_001    75235   232
##  6 08    Colorado             B19013_001    72331   370
##  7 09    Connecticut          B19013_001    78444   553
##  8 10    Delaware             B19013_001    68287   696
##  9 11    District of Columbia B19013_001    86420  1008
## 10 12    Florida              B19013_001    55660   220
## # … with 42 more rows
```
…
* One-year ACS data can be requested with the argument `survey = "acs1"`

```r
income_19 <- get_acs(
  geography = "state",
  variables = "B19013_001",
  survey = "acs1"
)

income_19
```

```
## # A tibble: 52 x 5
##    GEOID NAME                 variable   estimate   moe
##    <chr> <chr>                <chr>         <dbl> <dbl>
##  1 01    Alabama              B19013_001    51734   600
##  2 02    Alaska               B19013_001    75463  2694
##  3 04    Arizona              B19013_001    62055   446
##  4 05    Arkansas             B19013_001    48952   863
##  5 06    California           B19013_001    80440   313
##  6 08    Colorado             B19013_001    77127   791
##  7 09    Connecticut          B19013_001    78833  1358
##  8 10    Delaware             B19013_001    70176  1623
##  9 11    District of Columbia B19013_001    92266  2497
## 10 12    Florida              B19013_001    59227   443
## # … with 42 more rows
```
…
```r
age_table <- get_acs(
  geography = "state", 
  table = "B01001"
)
```

---

```r
age_table
```

```
## # A tibble: 2,548 x 5
##    GEOID NAME    variable   estimate   moe
##    <chr> <chr>   <chr>         <dbl> <dbl>
##  1 01    Alabama B01001_001  4876250    NA
##  2 01    Alabama B01001_002  2359355  1270
##  3 01    Alabama B01001_003   149090   704
##  4 01    Alabama B01001_004   153494  2290
##  5 01    Alabama B01001_005   158617  2274
##  6 01    Alabama B01001_006    98257   468
##  7 01    Alabama B01001_007    64980   834
##  8 01    Alabama B01001_008    35870  1436
##  9 01    Alabama B01001_009    35040  1472
## 10 01    Alabama B01001_010    95065  1916
## # … with 2,538 more rows
```
…
## Querying by state

```r
wi_income <- get_acs(
  geography = "county", 
  variables = "B19013_001", 
  state = "WI",
  year = 2019
)

wi_income
```

```
## # A tibble: 72 x 5
##    GEOID NAME                       variable   estimate   moe
##    <chr> <chr>                      <chr>         <dbl> <dbl>
##  1 55001 Adams County, Wisconsin    B19013_001    46369  1834
##  2 55003 Ashland County, Wisconsin  B19013_001    42510  2858
##  3 55005 Barron County, Wisconsin   B19013_001    52703  2104
##  4 55007 Bayfield County, Wisconsin B19013_001    56096  1877
##  5 55009 Brown County, Wisconsin    B19013_001    62340  1112
##  6 55011 Buffalo County, Wisconsin  B19013_001    57829  1873
##  7 55013 Burnett County, Wisconsin  B19013_001    52672  1388
##  8 55015 Calumet County, Wisconsin  B19013_001    75814  2425
##  9 55017 Chippewa County, Wisconsin B19013_001    59742  1759
## 10 55019 Clark County, Wisconsin    B19013_001    54012  1223
## # … with 62 more rows
```
…
## Querying by state and county

```r
dane_income <- get_acs(
  geography = "tract", 
  variables = "B19013_001", 
  state = "WI", 
  county = "Dane"
)

dane_income
```

```
## # A tibble: 107 x 5
##    GEOID       NAME                                     variable  estimate   moe
##    <chr>       <chr>                                    <chr>        <dbl> <dbl>
##  1 55025000100 Census Tract 1, Dane County, Wisconsin   B19013_0…    72471 12984
##  2 55025000201 Census Tract 2.01, Dane County, Wiscons… B19013_0…    94821 11860
##  3 55025000202 Census Tract 2.02, Dane County, Wiscons… B19013_0…    84145  7021
##  4 55025000204 Census Tract 2.04, Dane County, Wiscons… B19013_0…    79617 11823
##  5 55025000205 Census Tract 2.05, Dane County, Wiscons… B19013_0…    91326 13453
##  6 55025000300 Census Tract 3, Dane County, Wisconsin   B19013_0…    53778  7593
##  7 55025000401 Census Tract 4.01, Dane County, Wiscons… B19013_0…    98178  7330
##  8 55025000402 Census Tract 4.02, Dane County, Wiscons… B19013_0…   107440  6585
##  9 55025000405 Census Tract 4.05, Dane County, Wiscons… B19013_0…    68911  4141
## 10 55025000406 Census Tract 4.06, Dane County, Wiscons… B19013_0…    74489 10451
## # … with 97 more rows
```
…
## "Tidy" or long-form data

```r
hhinc <- get_acs(
  geography = "state", 
  table = "B19001", 
  survey = "acs1"
)

hhinc
```

```
## # A tibble: 884 x 5
##    GEOID NAME    variable   estimate   moe
##    <chr> <chr>   <chr>         <dbl> <dbl>
##  1 01    Alabama B19001_001  1897576 10370
##  2 01    Alabama B19001_002   154558  5883
##  3 01    Alabama B19001_003   103653  6001
##  4 01    Alabama B19001_004   108500  5926
##  5 01    Alabama B19001_005    98706  6491
##  6 01    Alabama B19001_006    90916  5859
##  7 01    Alabama B19001_007   105146  4149
##  8 01    Alabama B19001_008    85014  5417
##  9 01    Alabama B19001_009    87118  5163
## 10 01    Alabama B19001_010    82323  4231
## # … with 874 more rows
```
…
## "Wide" data 

```r
hhinc_wide <- get_acs(
  geography = "state", 
  table = "B19001", 
  survey = "acs1", 
  output = "wide"
)

hhinc_wide
```

```
## # A tibble: 52 x 36
##    GEOID NAME  B19001_001E B19001_001M B19001_002E B19001_002M B19001_003E
##    <chr> <chr>       <dbl>       <dbl>       <dbl>       <dbl>       <dbl>
##  1 17    Illi…     4866006       12627      289515        9500      178230
##  2 13    Geor…     3852714       14425      237054        8319      163741
##  3 16    Idaho      655859        5316       27773        3127       24498
##  4 15    Hawa…      465299        5012       23344        2470       12238
##  5 18    Indi…     2597765       12716      153355        7188      104333
##  6 19    Iowa      1287221        6606       65503        3958       52788
##  7 20    Kans…     1138329        6595       57967        4269       49134
##  8 21    Kent…     1748732        8789      137394        7450       96775
##  9 22    Loui…     1741076       11011      175845        7581       98971
## 10 23    Maine      573618        4999       29156        2776       26772
## # … with 42 more rows, and 29 more variables: B19001_003M <dbl>,
## #   B19001_004E <dbl>, B19001_004M <dbl>, B19001_005E <dbl>, B19001_005M <dbl>,
## #   B19001_006E <dbl>, B19001_006M <dbl>, B19001_007E <dbl>, B19001_007M <dbl>,
## #   B19001_008E <dbl>, B19001_008M <dbl>, B19001_009E <dbl>, B19001_009M <dbl>,
## #   B19001_010E <dbl>, B19001_010M <dbl>, B19001_011E <dbl>, B19001_011M <dbl>,
## #   B19001_012E <dbl>, B19001_012M <dbl>, B19001_013E <dbl>, B19001_013M <dbl>,
## #   B19001_014E <dbl>, B19001_014M <dbl>, B19001_015E <dbl>, B19001_015M <dbl>,
## #   B19001_016E <dbl>, B19001_016M <dbl>, B19001_017E <dbl>, B19001_017M <dbl>
```
…
```r
ga_wide <- get_acs(
  geography = "county",
  state = "GA",
  variables = c(medinc = "B19013_001",
                medage = "B01002_001"),
  output = "wide"
)

ga_wide
```

```
## # A tibble: 159 x 6
##    GEOID NAME                          medincE medincM medageE medageM
##    <chr> <chr>                           <dbl>   <dbl>   <dbl>   <dbl>
##  1 13005 Bacon County, Georgia           37519    5492    36.7     0.7
##  2 13025 Brantley County, Georgia        38857    3480    41.1     0.8
##  3 13017 Ben Hill County, Georgia        32229    3845    39.9     1.1
##  4 13033 Burke County, Georgia           44151    2438    37.4     0.6
##  5 13047 Catoosa County, Georgia         56235    2290    40.4     0.4
##  6 13053 Chattahoochee County, Georgia   47096    5158    24.5     0.5
##  7 13055 Chattooga County, Georgia       36807    2268    39.4     0.7
##  8 13073 Columbia County, Georgia        82339    3532    36.9     0.4
##  9 13087 Decatur County, Georgia         41481    3584    37.8     0.6
## 10 13115 Floyd County, Georgia           48336    2266    38.3     0.3
## # … with 149 more rows
```
…
median_age <- get_acs(
  geography = "county",
  variables = "B01002_001"
)
```

---

```r
arrange(median_age, estimate)
```

```
## # A tibble: 3,220 x 5
##    GEOID NAME                          variable   estimate   moe
##    <chr> <chr>                         <chr>         <dbl> <dbl>
##  1 51678 Lexington city, Virginia      B01002_001     22.3   0.7
##  2 51750 Radford city, Virginia        B01002_001     23.4   0.5
##  3 16065 Madison County, Idaho         B01002_001     23.5   0.2
##  4 46121 Todd County, South Dakota     B01002_001     23.8   0.4
##  5 02158 Kusilvak Census Area, Alaska  B01002_001     24.1   0.2
##  6 13053 Chattahoochee County, Georgia B01002_001     24.5   0.5
##  7 53075 Whitman County, Washington    B01002_001     24.7   0.3
##  8 49049 Utah County, Utah             B01002_001     24.8   0.1
##  9 46027 Clay County, South Dakota     B01002_001     24.9   0.4
## 10 51830 Williamsburg city, Virginia   B01002_001     24.9   0.7
## # … with 3,210 more rows
```

---

```r
arrange(median_age, desc(estimate))
```

```
## # A tibble: 3,220 x 5
##    GEOID NAME                            variable   estimate   moe
##    <chr> <chr>                           <chr>         <dbl> <dbl>
##  1 12119 Sumter County, Florida          B01002_001     67.4   0.2
##  2 51091 Highland County, Virginia       B01002_001     60.9   3.5
##  3 08027 Custer County, Colorado         B01002_001     59.7   2.6
##  4 12015 Charlotte County, Florida       B01002_001     59.1   0.2
##  5 41069 Wheeler County, Oregon          B01002_001     59     3.3
##  6 51133 Northumberland County, Virginia B01002_001     58.9   0.7
##  7 26131 Ontonagon County, Michigan      B01002_001     58.6   0.4
##  8 35021 Harding County, New Mexico      B01002_001     58.5   5.5
##  9 53031 Jefferson County, Washington    B01002_001     58.3   0.7
## 10 26001 Alcona County, Michigan         B01002_001     58.2   0.3
## # … with 3,210 more rows
```

---

## What are the counties with a median age above 50?

```r
above50 <- filter(median_age, estimate >= 50)

above50
```

```
## # A tibble: 216 x 5
##    GEOID NAME                        variable   estimate   moe
##    <chr> <chr>                       <chr>         <dbl> <dbl>
##  1 04007 Gila County, Arizona        B01002_001     50.2   0.2
##  2 04012 La Paz County, Arizona      B01002_001     56.5   0.5
##  3 04015 Mohave County, Arizona      B01002_001     51.6   0.3
##  4 04025 Yavapai County, Arizona     B01002_001     53.4   0.1
##  5 05005 Baxter County, Arkansas     B01002_001     52.2   0.3
##  6 05089 Marion County, Arkansas     B01002_001     52.2   0.5
##  7 05097 Montgomery County, Arkansas B01002_001     50.4   0.8
##  8 05137 Stone County, Arkansas      B01002_001     50.1   0.7
##  9 06003 Alpine County, California   B01002_001     52.2   8.8
## 10 06005 Amador County, California   B01002_001     50.5   0.4
## # … with 206 more rows
```
…
---

```r
az_race
```

```
## # A tibble: 90 x 7
##    GEOID NAME                    variable estimate   moe summary_est summary_moe
##    <chr> <chr>                   <chr>       <dbl> <dbl>       <dbl>       <dbl>
##  1 04001 Apache County, Arizona  White       13022     4       71511          NA
##  2 04001 Apache County, Arizona  Black         373   138       71511          NA
##  3 04001 Apache County, Arizona  Native      52285   234       71511          NA
##  4 04001 Apache County, Arizona  Asian         246    78       71511          NA
##  5 04001 Apache County, Arizona  HIPI           16    16       71511          NA
##  6 04001 Apache County, Arizona  Hispanic     4531    NA       71511          NA
##  7 04003 Cochise County, Arizona White       69216   235      125867          NA
##  8 04003 Cochise County, Arizona Black        4620   247      125867          NA
##  9 04003 Cochise County, Arizona Native       1142   191      125867          NA
## 10 04003 Cochise County, Arizona Asian        2431   162      125867          NA
## # … with 80 more rows
```
…
```r
az_race_percent <- az_race %>%
  mutate(percent = 100 * (estimate / summary_est)) %>%
  select(NAME, variable, percent)
```

---

```r
az_race_percent
```

```
## # A tibble: 90 x 3
##    NAME                    variable percent
##    <chr>                   <chr>      <dbl>
##  1 Apache County, Arizona  White    18.2   
##  2 Apache County, Arizona  Black     0.522 
##  3 Apache County, Arizona  Native   73.1   
##  4 Apache County, Arizona  Asian     0.344 
##  5 Apache County, Arizona  HIPI      0.0224
##  6 Apache County, Arizona  Hispanic  6.34  
##  7 Cochise County, Arizona White    55.0   
##  8 Cochise County, Arizona Black     3.67  
##  9 Cochise County, Arizona Native    0.907 
## 10 Cochise County, Arizona Asian     1.93  
## # … with 80 more rows
```
…
---

```r
salt_lake_grouped
```

```
## # A tibble: 424 x 4
## # Groups:   GEOID [212]
##    GEOID       sex    sum_est sum_moe
##    <chr>       <chr>    <dbl>   <dbl>
##  1 49035100100 Female      55    30.9
##  2 49035100100 Male        83    39.2
##  3 49035100200 Female     167    57.5
##  4 49035100200 Male       153    50.9
##  5 49035100306 Female     273   109. 
##  6 49035100306 Male       225    90.3
##  7 49035100307 Female     188    70.2
##  8 49035100307 Male       117    64.5
##  9 49035100308 Female     164    98.7
## 10 49035100308 Male       129    77.9
## # … with 414 more rows
```
…
```r
utah <- get_estimates(
  geography = "state",
  state = "UT",
  product = "characteristics",
  breakdown = c("SEX", "AGEGROUP"),
  breakdown_labels = TRUE,
  year = 2019
) 

utah
```

```
## # A tibble: 96 x 5
##    GEOID NAME    value SEX        AGEGROUP          
##    <chr> <chr>   <dbl> <chr>      <fct>             
##  1 49    Utah  3205958 Both sexes All ages          
##  2 49    Utah   247803 Both sexes Age 0 to 4 years  
##  3 49    Utah   258976 Both sexes Age 5 to 9 years  
##  4 49    Utah   267985 Both sexes Age 10 to 14 years
##  5 49    Utah   253847 Both sexes Age 15 to 19 years
##  6 49    Utah   264652 Both sexes Age 20 to 24 years
##  7 49    Utah   251376 Both sexes Age 25 to 29 years
##  8 49    Utah   220430 Both sexes Age 30 to 34 years
##  9 49    Utah   231242 Both sexes Age 35 to 39 years
## 10 49    Utah   212211 Both sexes Age 40 to 44 years
## # … with 86 more rows
```

---

## A first population pyramid

```r
utah_filtered <- filter(utah, str_detect(AGEGROUP, "^Age"), 
                  SEX != "Both sexes") %>%
  mutate(value = ifelse(SEX == "Male", -value, value))

utah_filtered
```

```
## # A tibble: 36 x 5
##    GEOID NAME    value SEX   AGEGROUP          
##    <chr> <chr>   <dbl> <chr> <fct>             
##  1 49    Utah  -127060 Male  Age 0 to 4 years  
##  2 49    Utah  -132868 Male  Age 5 to 9 years  
##  3 49    Utah  -137940 Male  Age 10 to 14 years
##  4 49    Utah  -129312 Male  Age 15 to 19 years
##  5 49    Utah  -135806 Male  Age 20 to 24 years
##  6 49    Utah  -129179 Male  Age 25 to 29 years
##  7 49    Utah  -111776 Male  Age 30 to 34 years
##  8 49    Utah  -117335 Male  Age 35 to 39 years
##  9 49    Utah  -108090 Male  Age 40 to 44 years
## 10 49    Utah   -89984 Male  Age 45 to 49 years
## # … with 26 more rows
```
…
